material weed
{
	technique
	{
		pass
		{
			ambient 0.5 0.5 0.5 1.0
			diffuse 0.6 0.6 0.6 1.0
			specular 0.2 0.2 0.2 1.0 12.5

			texture_unit
			{
				texture Agave_Variegata_Leaf_SU.png
			}
		}
	}
}
